if exists (select * from dbo.sysobjects where id = object_id(N'[dbo].[MailFormat]') and OBJECTPROPERTY(id, N'IsUserTable') = 1)
drop table [dbo].[MailFormat]
GO

if not exists (select * from dbo.sysobjects where id = object_id(N'[dbo].[MailFormat]') and OBJECTPROPERTY(id, N'IsUserTable') = 1)
 BEGIN
CREATE TABLE [dbo].[MailFormat] (
	[MailId] [int] NOT NULL ,
	[Culture] [varchar] (50) COLLATE Latin1_General_BIN NOT NULL ,
	[Subject] [nvarchar] (100) COLLATE Latin1_General_BIN NOT NULL ,
	[Body] [nvarchar] (1000) COLLATE Latin1_General_BIN NOT NULL 
) ON [PRIMARY]
END

GO

