if exists (select * from dbo.sysobjects where id = object_id(N'[dbo].[SpecialUser]') and OBJECTPROPERTY(id, N'IsUserTable') = 1)
drop table [dbo].[SpecialUser]
GO

if not exists (select * from dbo.sysobjects where id = object_id(N'[dbo].[SpecialUser]') and OBJECTPROPERTY(id, N'IsUserTable') = 1)
 BEGIN
CREATE TABLE [dbo].[SpecialUser] (
	[Id] [int] IDENTITY (1, 1) NOT NULL ,
	[Email] [varchar] (100) COLLATE Latin1_General_BIN NOT NULL ,
	[ShowPaper] [bit] NOT NULL ,
	[NotifyPaperState] [bit] NOT NULL,
	[NotifyBanner] [bit] NOT NULL
) ON [PRIMARY]
END

GO

