if exists (select * from dbo.sysobjects where id = object_id(N'[dbo].[FK_TemplateIcon_Template]') and OBJECTPROPERTY(id, N'IsForeignKey') = 1)
ALTER TABLE [dbo].[TemplateIcon] DROP CONSTRAINT FK_TemplateIcon_Template
GO

if exists (select * from dbo.sysobjects where id = object_id(N'[dbo].[FK_TemplateMedia_Template]') and OBJECTPROPERTY(id, N'IsForeignKey') = 1)
ALTER TABLE [dbo].[TemplateMedia] DROP CONSTRAINT FK_TemplateMedia_Template
GO

if exists (select * from dbo.sysobjects where id = object_id(N'[dbo].[Template]') and OBJECTPROPERTY(id, N'IsUserTable') = 1)
drop table [dbo].[Template]
GO

if not exists (select * from dbo.sysobjects where id = object_id(N'[dbo].[Template]') and OBJECTPROPERTY(id, N'IsUserTable') = 1)
 BEGIN
CREATE TABLE [dbo].[Template] (
	[Id] [int] IDENTITY (1, 1) NOT NULL ,
	[FaceId] [int] NOT NULL ,
	[Name] [char] (100) COLLATE Latin1_General_CS_AS NULL ,
	[Xml] [ntext] COLLATE Latin1_General_CS_AS NOT NULL 
) ON [PRIMARY] TEXTIMAGE_ON [PRIMARY]
END

GO

