if exists (select * from dbo.sysobjects where id = object_id(N'[dbo].[Retailer]') and OBJECTPROPERTY(id, N'IsUserTable') = 1)
drop table [dbo].[Retailer]
GO

if not exists (select * from dbo.sysobjects where id = object_id(N'[dbo].[Retailer]') and OBJECTPROPERTY(id, N'IsUserTable') = 1)
 BEGIN
CREATE TABLE [dbo].[Retailer] (
	[Id] [int] IDENTITY (1, 1) NOT NULL ,
	[Name] [varchar] (50) COLLATE Latin1_General_CI_AI NOT NULL ,
	[Icon] [image] NOT NULL ,
	[Url] [varchar] (200) COLLATE Latin1_General_CS_AS NOT NULL ,
	[DisplayName] [nvarchar] (50) COLLATE Latin1_General_BIN NULL ,
	[HasExitPage] [bit] NOT NULL 
) ON [PRIMARY] TEXTIMAGE_ON [PRIMARY]
END

GO