if exists (select * from dbo.sysobjects where id = object_id(N'[dbo].[IPFilter]') and OBJECTPROPERTY(id, N'IsUserTable') = 1)
drop table [dbo].[IPFilter]
GO

if not exists (select * from dbo.sysobjects where id = object_id(N'[dbo].[IPFilter]') and OBJECTPROPERTY(id, N'IsUserTable') = 1)
 BEGIN
CREATE TABLE [dbo].[IPFilter] (
	[Id] [int] IDENTITY (1, 1) NOT NULL ,
	[BeginField1] [tinyint] NOT NULL ,
	[BeginField2] [tinyint] NOT NULL ,
	[BeginField3] [tinyint] NOT NULL ,
	[BeginField4] [tinyint] NOT NULL ,
	[EndField1] [tinyint] NOT NULL ,
	[EndField2] [tinyint] NOT NULL ,
	[EndField3] [tinyint] NOT NULL ,
	[EndField4] [tinyint] NOT NULL ,
	[Description] [nvarchar] (100) COLLATE Latin1_General_BIN NOT NULL 
) ON [PRIMARY]
END

GO

