if exists (select * from dbo.sysobjects where id = object_id(N'[dbo].[Announcement]') and OBJECTPROPERTY(id, N'IsUserTable') = 1)
drop table [dbo].[Announcement]
GO

if not exists (select * from dbo.sysobjects where id = object_id(N'[dbo].[Announcement]') and OBJECTPROPERTY(id, N'IsUserTable') = 1)
 BEGIN
CREATE TABLE [dbo].[Announcement] (
	[Id] [int] IDENTITY (1, 1) NOT NULL ,
	[Text] [ntext] COLLATE Latin1_General_BIN NOT NULL ,
	[Time] [datetime] NOT NULL ,
	[IsActive] [bit] NOT NULL 
) ON [PRIMARY] TEXTIMAGE_ON [PRIMARY]
END

GO

