if exists (select * from dbo.sysobjects where id = object_id(N'[dbo].[ExitPage]') and OBJECTPROPERTY(id, N'IsUserTable') = 1)
drop table [dbo].[ExitPage]
GO

if not exists (select * from dbo.sysobjects where id = object_id(N'[dbo].[ExitPage]') and OBJECTPROPERTY(id, N'IsUserTable') = 1)
 BEGIN
CREATE TABLE [dbo].[ExitPage] (
	[RetailerId] [int] NOT NULL ,
	[HtmlText] [ntext] COLLATE Latin1_General_BIN NOT NULL ,
	[Enabled] [bit] NOT NULL 
) ON [PRIMARY] TEXTIMAGE_ON [PRIMARY]
END

GO

