if exists (select * from dbo.sysobjects where id = object_id(N'[dbo].[CarrierToRetailer]') and OBJECTPROPERTY(id, N'IsUserTable') = 1)
drop table [dbo].[CarrierToRetailer]
GO

if not exists (select * from dbo.sysobjects where id = object_id(N'[dbo].[CarrierToRetailer]') and OBJECTPROPERTY(id, N'IsUserTable') = 1)
 BEGIN
CREATE TABLE [dbo].[CarrierToRetailer] (
	[RetailerId] [int] NOT NULL ,
	[CarrierId] [int] NOT NULL 
) ON [PRIMARY]
END

GO

