if exists (select * from dbo.sysobjects where id = object_id(N'[dbo].[LinkPlace]') and OBJECTPROPERTY(id, N'IsUserTable') = 1)
drop table [dbo].[LinkPlace]
GO

if not exists (select * from dbo.sysobjects where id = object_id(N'[dbo].[LinkPlace]') and OBJECTPROPERTY(id, N'IsUserTable') = 1)
 BEGIN
CREATE TABLE [dbo].[LinkPlace] (
	[PageId] [int] NOT NULL ,
	[LinkId] [int] NOT NULL ,
	[SortOrder] [int] NOT NULL ,
	[Align] [char] (1) COLLATE Latin1_General_BIN NOT NULL ,
	[Place] [varchar] (50) COLLATE Latin1_General_BIN NOT NULL ,
	[IsNewWindow] [char] (1) COLLATE Latin1_General_BIN NOT NULL ,
	[IsVisible] [bit] NOT NULL ,
	[Icon] [image] NOT NULL 
) ON [PRIMARY] TEXTIMAGE_ON [PRIMARY]
END

GO

