if exists (select * from dbo.sysobjects where id = object_id(N'[dbo].[FK_Paper_PaperType]') and OBJECTPROPERTY(id, N'IsForeignKey') = 1)
ALTER TABLE [dbo].[Paper] DROP CONSTRAINT FK_Paper_PaperType
GO

if exists (select * from dbo.sysobjects where id = object_id(N'[dbo].[PaperType]') and OBJECTPROPERTY(id, N'IsUserTable') = 1)
drop table [dbo].[PaperType]
GO

if not exists (select * from dbo.sysobjects where id = object_id(N'[dbo].[PaperType]') and OBJECTPROPERTY(id, N'IsUserTable') = 1)
 BEGIN
CREATE TABLE [dbo].[PaperType] (
	[Id] [int] IDENTITY (1, 1) NOT NULL ,
	[Name] [varchar] (50) COLLATE Latin1_General_BIN NOT NULL 
) ON [PRIMARY]
END

GO

