if exists (select * from dbo.sysobjects where id = object_id(N'[dbo].[BuyMoreSkinsPage]') and OBJECTPROPERTY(id, N'IsUserTable') = 1)
drop table [dbo].[BuyMoreSkinsPage]
GO

if not exists (select * from dbo.sysobjects where id = object_id(N'[dbo].[BuyMoreSkinsPage]') and OBJECTPROPERTY(id, N'IsUserTable') = 1)
 BEGIN
CREATE TABLE [dbo].[BuyMoreSkinsPage] (
	[Culture] [nvarchar] (10) COLLATE Latin1_General_BIN NOT NULL ,
	[HtmlText] [ntext] COLLATE Latin1_General_BIN NOT NULL ,
	[RetailerId] [int] NOT NULL 
) ON [PRIMARY] TEXTIMAGE_ON [PRIMARY]
END

GO

