if exists (select * from dbo.sysobjects where id = object_id(N'[dbo].[FK_CarrierToRetailer_Carrier]') and OBJECTPROPERTY(id, N'IsForeignKey') = 1)
ALTER TABLE [dbo].[CarrierToRetailer] DROP CONSTRAINT FK_CarrierToRetailer_Carrier
GO

if exists (select * from dbo.sysobjects where id = object_id(N'[dbo].[FK_DeviceToCarrier_Carrier]') and OBJECTPROPERTY(id, N'IsForeignKey') = 1)
ALTER TABLE [dbo].[DeviceToCarrier] DROP CONSTRAINT FK_DeviceToCarrier_Carrier
GO

if exists (select * from dbo.sysobjects where id = object_id(N'[dbo].[Carrier]') and OBJECTPROPERTY(id, N'IsUserTable') = 1)
drop table [dbo].[Carrier]
GO

if not exists (select * from dbo.sysobjects where id = object_id(N'[dbo].[Carrier]') and OBJECTPROPERTY(id, N'IsUserTable') = 1)
 BEGIN
CREATE TABLE [dbo].[Carrier] (
	[Id] [int] IDENTITY (1, 1) NOT NULL ,
	[Name] [nvarchar] (40) COLLATE Latin1_General_BIN NOT NULL ,
	[Icon] [image] NULL 
) ON [PRIMARY] TEXTIMAGE_ON [PRIMARY]
END

GO

